<?xml version="1.0" encoding="utf-8"?>
<!DOCTYPE svg PUBLIC "-//W3C//DTD SVG 1.1//EN" "http://www.w3.org/Graphics/SVG/1.1/DTD/svg11.dtd">
<svg version="1.1" id="Layer_1" xmlns="http://www.w3.org/2000/svg" xmlns:xlink="http://www.w3.org/1999/xlink" x="0px" y="0px"
width="2257px" height="2257px" viewBox="0 0 2257 2257" enable-background="new 0 0 2257 2257" xml:space="preserve">
<rect x="0" y="0" width="2257" height="2257" fill="rgb(255,255,255)" /><g transform="translate(122,122)"><g transform="translate(549,0) scale(0.61,0.61)"><g transform="" style="fill: rgb(255, 0, 0);">
<rect width="100" height="100"/>
</g></g><g transform="translate(610,0) scale(0.61,0.61)"><g transform="" style="fill: rgb(255, 0, 0);">
<rect width="100" height="100"/>
</g></g><g transform="translate(671,0) scale(0.61,0.61)"><g transform="" style="fill: rgb(255, 0, 0);">
<rect width="100" height="100"/>
</g></g><g transform="translate(854,0) scale(0.61,0.61)"><g transform="" style="fill: rgb(255, 0, 0);">
<rect width="100" height="100"/>
</g></g><g transform="translate(976,0) scale(0.61,0.61)"><g transform="" style="fill: rgb(255, 0, 0);">
<rect width="100" height="100"/>
</g></g><g transform="translate(1098,0) scale(0.61,0.61)"><g transform="" style="fill: rgb(255, 0, 0);">
<rect width="100" height="100"/>
</g></g><g transform="translate(1159,0) scale(0.61,0.61)"><g transform="" style="fill: rgb(255, 0, 0);">
<rect width="100" height="100"/>
</g></g><g transform="translate(1220,0) scale(0.61,0.61)"><g transform="" style="fill: rgb(255, 0, 0);">
<rect width="100" height="100"/>
</g></g><g transform="translate(1281,0) scale(0.61,0.61)"><g transform="" style="fill: rgb(255, 0, 0);">
<rect width="100" height="100"/>
</g></g><g transform="translate(1342,0) scale(0.61,0.61)"><g transform="" style="fill: rgb(255, 0, 0);">
<rect width="100" height="100"/>
</g></g><g transform="translate(1464,0) scale(0.61,0.61)"><g transform="" style="fill: rgb(255, 0, 0);">
<rect width="100" height="100"/>
</g></g><g transform="translate(488,61) scale(0.61,0.61)"><g transform="" style="fill: rgb(255, 0, 0);">
<rect width="100" height="100"/>
</g></g><g transform="translate(549,61) scale(0.61,0.61)"><g transform="" style="fill: rgb(255, 0, 0);">
<rect width="100" height="100"/>
</g></g><g transform="translate(610,61) scale(0.61,0.61)"><g transform="" style="fill: rgb(255, 0, 0);">
<rect width="100" height="100"/>
</g></g><g transform="translate(671,61) scale(0.61,0.61)"><g transform="" style="fill: rgb(255, 0, 0);">
<rect width="100" height="100"/>
</g></g><g transform="translate(854,61) scale(0.61,0.61)"><g transform="" style="fill: rgb(255, 0, 0);">
<rect width="100" height="100"/>
</g></g><g transform="translate(976,61) scale(0.61,0.61)"><g transform="" style="fill: rgb(255, 0, 0);">
<rect width="100" height="100"/>
</g></g><g transform="translate(1037,61) scale(0.61,0.61)"><g transform="" style="fill: rgb(255, 0, 0);">
<rect width="100" height="100"/>
</g></g><g transform="translate(1098,61) scale(0.61,0.61)"><g transform="" style="fill: rgb(255, 0, 0);">
<rect width="100" height="100"/>
</g></g><g transform="translate(1220,61) scale(0.61,0.61)"><g transform="" style="fill: rgb(255, 0, 0);">
<rect width="100" height="100"/>
</g></g><g transform="translate(1281,61) scale(0.61,0.61)"><g transform="" style="fill: rgb(255, 0, 0);">
<rect width="100" height="100"/>
</g></g><g transform="translate(1464,61) scale(0.61,0.61)"><g transform="" style="fill: rgb(255, 0, 0);">
<rect width="100" height="100"/>
</g></g><g transform="translate(488,122) scale(0.61,0.61)"><g transform="" style="fill: rgb(255, 0, 0);">
<rect width="100" height="100"/>
</g></g><g transform="translate(610,122) scale(0.61,0.61)"><g transform="" style="fill: rgb(255, 0, 0);">
<rect width="100" height="100"/>
</g></g><g transform="translate(671,122) scale(0.61,0.61)"><g transform="" style="fill: rgb(255, 0, 0);">
<rect width="100" height="100"/>
</g></g><g transform="translate(732,122) scale(0.61,0.61)"><g transform="" style="fill: rgb(255, 0, 0);">
<rect width="100" height="100"/>
</g></g><g transform="translate(915,122) scale(0.61,0.61)"><g transform="" style="fill: rgb(255, 0, 0);">
<rect width="100" height="100"/>
</g></g><g transform="translate(1098,122) scale(0.61,0.61)"><g transform="" style="fill: rgb(255, 0, 0);">
<rect width="100" height="100"/>
</g></g><g transform="translate(1159,122) scale(0.61,0.61)"><g transform="" style="fill: rgb(255, 0, 0);">
<rect width="100" height="100"/>
</g></g><g transform="translate(1220,122) scale(0.61,0.61)"><g transform="" style="fill: rgb(255, 0, 0);">
<rect width="100" height="100"/>
</g></g><g transform="translate(1281,122) scale(0.61,0.61)"><g transform="" style="fill: rgb(255, 0, 0);">
<rect width="100" height="100"/>
</g></g><g transform="translate(488,183) scale(0.61,0.61)"><g transform="" style="fill: rgb(255, 0, 0);">
<rect width="100" height="100"/>
</g></g><g transform="translate(610,183) scale(0.61,0.61)"><g transform="" style="fill: rgb(255, 0, 0);">
<rect width="100" height="100"/>
</g></g><g transform="translate(793,183) scale(0.61,0.61)"><g transform="" style="fill: rgb(255, 0, 0);">
<rect width="100" height="100"/>
</g></g><g transform="translate(915,183) scale(0.61,0.61)"><g transform="" style="fill: rgb(255, 0, 0);">
<rect width="100" height="100"/>
</g></g><g transform="translate(1159,183) scale(0.61,0.61)"><g transform="" style="fill: rgb(255, 0, 0);">
<rect width="100" height="100"/>
</g></g><g transform="translate(1281,183) scale(0.61,0.61)"><g transform="" style="fill: rgb(255, 0, 0);">
<rect width="100" height="100"/>
</g></g><g transform="translate(1342,183) scale(0.61,0.61)"><g transform="" style="fill: rgb(255, 0, 0);">
<rect width="100" height="100"/>
</g></g><g transform="translate(1403,183) scale(0.61,0.61)"><g transform="" style="fill: rgb(255, 0, 0);">
<rect width="100" height="100"/>
</g></g><g transform="translate(1464,183) scale(0.61,0.61)"><g transform="" style="fill: rgb(255, 0, 0);">
<rect width="100" height="100"/>
</g></g><g transform="translate(488,244) scale(0.61,0.61)"><g transform="" style="fill: rgb(255, 0, 0);">
<rect width="100" height="100"/>
</g></g><g transform="translate(549,244) scale(0.61,0.61)"><g transform="" style="fill: rgb(255, 0, 0);">
<rect width="100" height="100"/>
</g></g><g transform="translate(732,244) scale(0.61,0.61)"><g transform="" style="fill: rgb(255, 0, 0);">
<rect width="100" height="100"/>
</g></g><g transform="translate(854,244) scale(0.61,0.61)"><g transform="" style="fill: rgb(255, 0, 0);">
<rect width="100" height="100"/>
</g></g><g transform="translate(976,244) scale(0.61,0.61)"><g transform="" style="fill: rgb(255, 0, 0);">
<rect width="100" height="100"/>
</g></g><g transform="translate(1098,244) scale(0.61,0.61)"><g transform="" style="fill: rgb(255, 0, 0);">
<rect width="100" height="100"/>
</g></g><g transform="translate(1281,244) scale(0.61,0.61)"><g transform="" style="fill: rgb(255, 0, 0);">
<rect width="100" height="100"/>
</g></g><g transform="translate(1342,244) scale(0.61,0.61)"><g transform="" style="fill: rgb(255, 0, 0);">
<rect width="100" height="100"/>
</g></g><g transform="translate(1403,244) scale(0.61,0.61)"><g transform="" style="fill: rgb(255, 0, 0);">
<rect width="100" height="100"/>
</g></g><g transform="translate(1464,244) scale(0.61,0.61)"><g transform="" style="fill: rgb(255, 0, 0);">
<rect width="100" height="100"/>
</g></g><g transform="translate(488,305) scale(0.61,0.61)"><g transform="" style="fill: rgb(255, 0, 0);">
<rect width="100" height="100"/>
</g></g><g transform="translate(549,305) scale(0.61,0.61)"><g transform="" style="fill: rgb(255, 0, 0);">
<rect width="100" height="100"/>
</g></g><g transform="translate(671,305) scale(0.61,0.61)"><g transform="" style="fill: rgb(255, 0, 0);">
<rect width="100" height="100"/>
</g></g><g transform="translate(976,305) scale(0.61,0.61)"><g transform="" style="fill: rgb(255, 0, 0);">
<rect width="100" height="100"/>
</g></g><g transform="translate(1037,305) scale(0.61,0.61)"><g transform="" style="fill: rgb(255, 0, 0);">
<rect width="100" height="100"/>
</g></g><g transform="translate(1098,305) scale(0.61,0.61)"><g transform="" style="fill: rgb(255, 0, 0);">
<rect width="100" height="100"/>
</g></g><g transform="translate(1159,305) scale(0.61,0.61)"><g transform="" style="fill: rgb(255, 0, 0);">
<rect width="100" height="100"/>
</g></g><g transform="translate(1220,305) scale(0.61,0.61)"><g transform="" style="fill: rgb(255, 0, 0);">
<rect width="100" height="100"/>
</g></g><g transform="translate(1464,305) scale(0.61,0.61)"><g transform="" style="fill: rgb(255, 0, 0);">
<rect width="100" height="100"/>
</g></g><g transform="translate(488,366) scale(0.61,0.61)"><g transform="" style="fill: rgb(255, 0, 0);">
<rect width="100" height="100"/>
</g></g><g transform="translate(610,366) scale(0.61,0.61)"><g transform="" style="fill: rgb(255, 0, 0);">
<rect width="100" height="100"/>
</g></g><g transform="translate(732,366) scale(0.61,0.61)"><g transform="" style="fill: rgb(255, 0, 0);">
<rect width="100" height="100"/>
</g></g><g transform="translate(854,366) scale(0.61,0.61)"><g transform="" style="fill: rgb(255, 0, 0);">
<rect width="100" height="100"/>
</g></g><g transform="translate(976,366) scale(0.61,0.61)"><g transform="" style="fill: rgb(255, 0, 0);">
<rect width="100" height="100"/>
</g></g><g transform="translate(1098,366) scale(0.61,0.61)"><g transform="" style="fill: rgb(255, 0, 0);">
<rect width="100" height="100"/>
</g></g><g transform="translate(1220,366) scale(0.61,0.61)"><g transform="" style="fill: rgb(255, 0, 0);">
<rect width="100" height="100"/>
</g></g><g transform="translate(1342,366) scale(0.61,0.61)"><g transform="" style="fill: rgb(255, 0, 0);">
<rect width="100" height="100"/>
</g></g><g transform="translate(1464,366) scale(0.61,0.61)"><g transform="" style="fill: rgb(255, 0, 0);">
<rect width="100" height="100"/>
</g></g><g transform="translate(549,427) scale(0.61,0.61)"><g transform="" style="fill: rgb(255, 0, 0);">
<rect width="100" height="100"/>
</g></g><g transform="translate(793,427) scale(0.61,0.61)"><g transform="" style="fill: rgb(255, 0, 0);">
<rect width="100" height="100"/>
</g></g><g transform="translate(854,427) scale(0.61,0.61)"><g transform="" style="fill: rgb(255, 0, 0);">
<rect width="100" height="100"/>
</g></g><g transform="translate(915,427) scale(0.61,0.61)"><g transform="" style="fill: rgb(255, 0, 0);">
<rect width="100" height="100"/>
</g></g><g transform="translate(976,427) scale(0.61,0.61)"><g transform="" style="fill: rgb(255, 0, 0);">
<rect width="100" height="100"/>
</g></g><g transform="translate(1159,427) scale(0.61,0.61)"><g transform="" style="fill: rgb(255, 0, 0);">
<rect width="100" height="100"/>
</g></g><g transform="translate(1220,427) scale(0.61,0.61)"><g transform="" style="fill: rgb(255, 0, 0);">
<rect width="100" height="100"/>
</g></g><g transform="translate(1342,427) scale(0.61,0.61)"><g transform="" style="fill: rgb(255, 0, 0);">
<rect width="100" height="100"/>
</g></g><g transform="translate(122,488) scale(0.61,0.61)"><g transform="" style="fill: rgb(255, 0, 0);">
<rect width="100" height="100"/>
</g></g><g transform="translate(305,488) scale(0.61,0.61)"><g transform="" style="fill: rgb(255, 0, 0);">
<rect width="100" height="100"/>
</g></g><g transform="translate(366,488) scale(0.61,0.61)"><g transform="" style="fill: rgb(255, 0, 0);">
<rect width="100" height="100"/>
</g></g><g transform="translate(427,488) scale(0.61,0.61)"><g transform="" style="fill: rgb(255, 0, 0);">
<rect width="100" height="100"/>
</g></g><g transform="translate(488,488) scale(0.61,0.61)"><g transform="" style="fill: rgb(255, 0, 0);">
<rect width="100" height="100"/>
</g></g><g transform="translate(549,488) scale(0.61,0.61)"><g transform="" style="fill: rgb(255, 0, 0);">
<rect width="100" height="100"/>
</g></g><g transform="translate(671,488) scale(0.61,0.61)"><g transform="" style="fill: rgb(255, 0, 0);">
<rect width="100" height="100"/>
</g></g><g transform="translate(793,488) scale(0.61,0.61)"><g transform="" style="fill: rgb(255, 0, 0);">
<rect width="100" height="100"/>
</g></g><g transform="translate(854,488) scale(0.61,0.61)"><g transform="" style="fill: rgb(255, 0, 0);">
<rect width="100" height="100"/>
</g></g><g transform="translate(976,488) scale(0.61,0.61)"><g transform="" style="fill: rgb(255, 0, 0);">
<rect width="100" height="100"/>
</g></g><g transform="translate(1037,488) scale(0.61,0.61)"><g transform="" style="fill: rgb(255, 0, 0);">
<rect width="100" height="100"/>
</g></g><g transform="translate(1098,488) scale(0.61,0.61)"><g transform="" style="fill: rgb(255, 0, 0);">
<rect width="100" height="100"/>
</g></g><g transform="translate(1403,488) scale(0.61,0.61)"><g transform="" style="fill: rgb(255, 0, 0);">
<rect width="100" height="100"/>
</g></g><g transform="translate(1464,488) scale(0.61,0.61)"><g transform="" style="fill: rgb(255, 0, 0);">
<rect width="100" height="100"/>
</g></g><g transform="translate(1525,488) scale(0.61,0.61)"><g transform="" style="fill: rgb(255, 0, 0);">
<rect width="100" height="100"/>
</g></g><g transform="translate(1647,488) scale(0.61,0.61)"><g transform="" style="fill: rgb(255, 0, 0);">
<rect width="100" height="100"/>
</g></g><g transform="translate(1708,488) scale(0.61,0.61)"><g transform="" style="fill: rgb(255, 0, 0);">
<rect width="100" height="100"/>
</g></g><g transform="translate(1769,488) scale(0.61,0.61)"><g transform="" style="fill: rgb(255, 0, 0);">
<rect width="100" height="100"/>
</g></g><g transform="translate(1830,488) scale(0.61,0.61)"><g transform="" style="fill: rgb(255, 0, 0);">
<rect width="100" height="100"/>
</g></g><g transform="translate(1891,488) scale(0.61,0.61)"><g transform="" style="fill: rgb(255, 0, 0);">
<rect width="100" height="100"/>
</g></g><g transform="translate(61,549) scale(0.61,0.61)"><g transform="" style="fill: rgb(255, 0, 0);">
<rect width="100" height="100"/>
</g></g><g transform="translate(244,549) scale(0.61,0.61)"><g transform="" style="fill: rgb(255, 0, 0);">
<rect width="100" height="100"/>
</g></g><g transform="translate(427,549) scale(0.61,0.61)"><g transform="" style="fill: rgb(255, 0, 0);">
<rect width="100" height="100"/>
</g></g><g transform="translate(488,549) scale(0.61,0.61)"><g transform="" style="fill: rgb(255, 0, 0);">
<rect width="100" height="100"/>
</g></g><g transform="translate(549,549) scale(0.61,0.61)"><g transform="" style="fill: rgb(255, 0, 0);">
<rect width="100" height="100"/>
</g></g><g transform="translate(610,549) scale(0.61,0.61)"><g transform="" style="fill: rgb(255, 0, 0);">
<rect width="100" height="100"/>
</g></g><g transform="translate(671,549) scale(0.61,0.61)"><g transform="" style="fill: rgb(255, 0, 0);">
<rect width="100" height="100"/>
</g></g><g transform="translate(793,549) scale(0.61,0.61)"><g transform="" style="fill: rgb(255, 0, 0);">
<rect width="100" height="100"/>
</g></g><g transform="translate(854,549) scale(0.61,0.61)"><g transform="" style="fill: rgb(255, 0, 0);">
<rect width="100" height="100"/>
</g></g><g transform="translate(976,549) scale(0.61,0.61)"><g transform="" style="fill: rgb(255, 0, 0);">
<rect width="100" height="100"/>
</g></g><g transform="translate(1098,549) scale(0.61,0.61)"><g transform="" style="fill: rgb(255, 0, 0);">
<rect width="100" height="100"/>
</g></g><g transform="translate(1159,549) scale(0.61,0.61)"><g transform="" style="fill: rgb(255, 0, 0);">
<rect width="100" height="100"/>
</g></g><g transform="translate(1281,549) scale(0.61,0.61)"><g transform="" style="fill: rgb(255, 0, 0);">
<rect width="100" height="100"/>
</g></g><g transform="translate(1403,549) scale(0.61,0.61)"><g transform="" style="fill: rgb(255, 0, 0);">
<rect width="100" height="100"/>
</g></g><g transform="translate(1464,549) scale(0.61,0.61)"><g transform="" style="fill: rgb(255, 0, 0);">
<rect width="100" height="100"/>
</g></g><g transform="translate(1525,549) scale(0.61,0.61)"><g transform="" style="fill: rgb(255, 0, 0);">
<rect width="100" height="100"/>
</g></g><g transform="translate(1586,549) scale(0.61,0.61)"><g transform="" style="fill: rgb(255, 0, 0);">
<rect width="100" height="100"/>
</g></g><g transform="translate(1647,549) scale(0.61,0.61)"><g transform="" style="fill: rgb(255, 0, 0);">
<rect width="100" height="100"/>
</g></g><g transform="translate(1769,549) scale(0.61,0.61)"><g transform="" style="fill: rgb(255, 0, 0);">
<rect width="100" height="100"/>
</g></g><g transform="translate(1891,549) scale(0.61,0.61)"><g transform="" style="fill: rgb(255, 0, 0);">
<rect width="100" height="100"/>
</g></g><g transform="translate(1952,549) scale(0.61,0.61)"><g transform="" style="fill: rgb(255, 0, 0);">
<rect width="100" height="100"/>
</g></g><g transform="translate(0,610) scale(0.61,0.61)"><g transform="" style="fill: rgb(255, 0, 0);">
<rect width="100" height="100"/>
</g></g><g transform="translate(61,610) scale(0.61,0.61)"><g transform="" style="fill: rgb(255, 0, 0);">
<rect width="100" height="100"/>
</g></g><g transform="translate(366,610) scale(0.61,0.61)"><g transform="" style="fill: rgb(255, 0, 0);">
<rect width="100" height="100"/>
</g></g><g transform="translate(488,610) scale(0.61,0.61)"><g transform="" style="fill: rgb(255, 0, 0);">
<rect width="100" height="100"/>
</g></g><g transform="translate(549,610) scale(0.61,0.61)"><g transform="" style="fill: rgb(255, 0, 0);">
<rect width="100" height="100"/>
</g></g><g transform="translate(671,610) scale(0.61,0.61)"><g transform="" style="fill: rgb(255, 0, 0);">
<rect width="100" height="100"/>
</g></g><g transform="translate(793,610) scale(0.61,0.61)"><g transform="" style="fill: rgb(255, 0, 0);">
<rect width="100" height="100"/>
</g></g><g transform="translate(854,610) scale(0.61,0.61)"><g transform="" style="fill: rgb(255, 0, 0);">
<rect width="100" height="100"/>
</g></g><g transform="translate(976,610) scale(0.61,0.61)"><g transform="" style="fill: rgb(255, 0, 0);">
<rect width="100" height="100"/>
</g></g><g transform="translate(1037,610) scale(0.61,0.61)"><g transform="" style="fill: rgb(255, 0, 0);">
<rect width="100" height="100"/>
</g></g><g transform="translate(1403,610) scale(0.61,0.61)"><g transform="" style="fill: rgb(255, 0, 0);">
<rect width="100" height="100"/>
</g></g><g transform="translate(1464,610) scale(0.61,0.61)"><g transform="" style="fill: rgb(255, 0, 0);">
<rect width="100" height="100"/>
</g></g><g transform="translate(1647,610) scale(0.61,0.61)"><g transform="" style="fill: rgb(255, 0, 0);">
<rect width="100" height="100"/>
</g></g><g transform="translate(1708,610) scale(0.61,0.61)"><g transform="" style="fill: rgb(255, 0, 0);">
<rect width="100" height="100"/>
</g></g><g transform="translate(1769,610) scale(0.61,0.61)"><g transform="" style="fill: rgb(255, 0, 0);">
<rect width="100" height="100"/>
</g></g><g transform="translate(1830,610) scale(0.61,0.61)"><g transform="" style="fill: rgb(255, 0, 0);">
<rect width="100" height="100"/>
</g></g><g transform="translate(1952,610) scale(0.61,0.61)"><g transform="" style="fill: rgb(255, 0, 0);">
<rect width="100" height="100"/>
</g></g><g transform="translate(61,671) scale(0.61,0.61)"><g transform="" style="fill: rgb(255, 0, 0);">
<rect width="100" height="100"/>
</g></g><g transform="translate(244,671) scale(0.61,0.61)"><g transform="" style="fill: rgb(255, 0, 0);">
<rect width="100" height="100"/>
</g></g><g transform="translate(305,671) scale(0.61,0.61)"><g transform="" style="fill: rgb(255, 0, 0);">
<rect width="100" height="100"/>
</g></g><g transform="translate(427,671) scale(0.61,0.61)"><g transform="" style="fill: rgb(255, 0, 0);">
<rect width="100" height="100"/>
</g></g><g transform="translate(549,671) scale(0.61,0.61)"><g transform="" style="fill: rgb(255, 0, 0);">
<rect width="100" height="100"/>
</g></g><g transform="translate(610,671) scale(0.61,0.61)"><g transform="" style="fill: rgb(255, 0, 0);">
<rect width="100" height="100"/>
</g></g><g transform="translate(671,671) scale(0.61,0.61)"><g transform="" style="fill: rgb(255, 0, 0);">
<rect width="100" height="100"/>
</g></g><g transform="translate(793,671) scale(0.61,0.61)"><g transform="" style="fill: rgb(255, 0, 0);">
<rect width="100" height="100"/>
</g></g><g transform="translate(915,671) scale(0.61,0.61)"><g transform="" style="fill: rgb(255, 0, 0);">
<rect width="100" height="100"/>
</g></g><g transform="translate(1037,671) scale(0.61,0.61)"><g transform="" style="fill: rgb(255, 0, 0);">
<rect width="100" height="100"/>
</g></g><g transform="translate(1098,671) scale(0.61,0.61)"><g transform="" style="fill: rgb(255, 0, 0);">
<rect width="100" height="100"/>
</g></g><g transform="translate(1159,671) scale(0.61,0.61)"><g transform="" style="fill: rgb(255, 0, 0);">
<rect width="100" height="100"/>
</g></g><g transform="translate(1281,671) scale(0.61,0.61)"><g transform="" style="fill: rgb(255, 0, 0);">
<rect width="100" height="100"/>
</g></g><g transform="translate(1464,671) scale(0.61,0.61)"><g transform="" style="fill: rgb(255, 0, 0);">
<rect width="100" height="100"/>
</g></g><g transform="translate(1647,671) scale(0.61,0.61)"><g transform="" style="fill: rgb(255, 0, 0);">
<rect width="100" height="100"/>
</g></g><g transform="translate(1891,671) scale(0.61,0.61)"><g transform="" style="fill: rgb(255, 0, 0);">
<rect width="100" height="100"/>
</g></g><g transform="translate(61,732) scale(0.61,0.61)"><g transform="" style="fill: rgb(255, 0, 0);">
<rect width="100" height="100"/>
</g></g><g transform="translate(183,732) scale(0.61,0.61)"><g transform="" style="fill: rgb(255, 0, 0);">
<rect width="100" height="100"/>
</g></g><g transform="translate(244,732) scale(0.61,0.61)"><g transform="" style="fill: rgb(255, 0, 0);">
<rect width="100" height="100"/>
</g></g><g transform="translate(305,732) scale(0.61,0.61)"><g transform="" style="fill: rgb(255, 0, 0);">
<rect width="100" height="100"/>
</g></g><g transform="translate(366,732) scale(0.61,0.61)"><g transform="" style="fill: rgb(255, 0, 0);">
<rect width="100" height="100"/>
</g></g><g transform="translate(488,732) scale(0.61,0.61)"><g transform="" style="fill: rgb(255, 0, 0);">
<rect width="100" height="100"/>
</g></g><g transform="translate(671,732) scale(0.61,0.61)"><g transform="" style="fill: rgb(255, 0, 0);">
<rect width="100" height="100"/>
</g></g><g transform="translate(732,732) scale(0.61,0.61)"><g transform="" style="fill: rgb(255, 0, 0);">
<rect width="100" height="100"/>
</g></g><g transform="translate(793,732) scale(0.61,0.61)"><g transform="" style="fill: rgb(255, 0, 0);">
<rect width="100" height="100"/>
</g></g><g transform="translate(1037,732) scale(0.61,0.61)"><g transform="" style="fill: rgb(255, 0, 0);">
<rect width="100" height="100"/>
</g></g><g transform="translate(1220,732) scale(0.61,0.61)"><g transform="" style="fill: rgb(255, 0, 0);">
<rect width="100" height="100"/>
</g></g><g transform="translate(1281,732) scale(0.61,0.61)"><g transform="" style="fill: rgb(255, 0, 0);">
<rect width="100" height="100"/>
</g></g><g transform="translate(1403,732) scale(0.61,0.61)"><g transform="" style="fill: rgb(255, 0, 0);">
<rect width="100" height="100"/>
</g></g><g transform="translate(1586,732) scale(0.61,0.61)"><g transform="" style="fill: rgb(255, 0, 0);">
<rect width="100" height="100"/>
</g></g><g transform="translate(1647,732) scale(0.61,0.61)"><g transform="" style="fill: rgb(255, 0, 0);">
<rect width="100" height="100"/>
</g></g><g transform="translate(1708,732) scale(0.61,0.61)"><g transform="" style="fill: rgb(255, 0, 0);">
<rect width="100" height="100"/>
</g></g><g transform="translate(1769,732) scale(0.61,0.61)"><g transform="" style="fill: rgb(255, 0, 0);">
<rect width="100" height="100"/>
</g></g><g transform="translate(1891,732) scale(0.61,0.61)"><g transform="" style="fill: rgb(255, 0, 0);">
<rect width="100" height="100"/>
</g></g><g transform="translate(0,793) scale(0.61,0.61)"><g transform="" style="fill: rgb(255, 0, 0);">
<rect width="100" height="100"/>
</g></g><g transform="translate(183,793) scale(0.61,0.61)"><g transform="" style="fill: rgb(255, 0, 0);">
<rect width="100" height="100"/>
</g></g><g transform="translate(244,793) scale(0.61,0.61)"><g transform="" style="fill: rgb(255, 0, 0);">
<rect width="100" height="100"/>
</g></g><g transform="translate(305,793) scale(0.61,0.61)"><g transform="" style="fill: rgb(255, 0, 0);">
<rect width="100" height="100"/>
</g></g><g transform="translate(427,793) scale(0.61,0.61)"><g transform="" style="fill: rgb(255, 0, 0);">
<rect width="100" height="100"/>
</g></g><g transform="translate(732,793) scale(0.61,0.61)"><g transform="" style="fill: rgb(255, 0, 0);">
<rect width="100" height="100"/>
</g></g><g transform="translate(793,793) scale(0.61,0.61)"><g transform="" style="fill: rgb(255, 0, 0);">
<rect width="100" height="100"/>
</g></g><g transform="translate(915,793) scale(0.61,0.61)"><g transform="" style="fill: rgb(255, 0, 0);">
<rect width="100" height="100"/>
</g></g><g transform="translate(976,793) scale(0.61,0.61)"><g transform="" style="fill: rgb(255, 0, 0);">
<rect width="100" height="100"/>
</g></g><g transform="translate(1037,793) scale(0.61,0.61)"><g transform="" style="fill: rgb(255, 0, 0);">
<rect width="100" height="100"/>
</g></g><g transform="translate(1098,793) scale(0.61,0.61)"><g transform="" style="fill: rgb(255, 0, 0);">
<rect width="100" height="100"/>
</g></g><g transform="translate(1281,793) scale(0.61,0.61)"><g transform="" style="fill: rgb(255, 0, 0);">
<rect width="100" height="100"/>
</g></g><g transform="translate(1403,793) scale(0.61,0.61)"><g transform="" style="fill: rgb(255, 0, 0);">
<rect width="100" height="100"/>
</g></g><g transform="translate(1464,793) scale(0.61,0.61)"><g transform="" style="fill: rgb(255, 0, 0);">
<rect width="100" height="100"/>
</g></g><g transform="translate(1525,793) scale(0.61,0.61)"><g transform="" style="fill: rgb(255, 0, 0);">
<rect width="100" height="100"/>
</g></g><g transform="translate(1586,793) scale(0.61,0.61)"><g transform="" style="fill: rgb(255, 0, 0);">
<rect width="100" height="100"/>
</g></g><g transform="translate(1647,793) scale(0.61,0.61)"><g transform="" style="fill: rgb(255, 0, 0);">
<rect width="100" height="100"/>
</g></g><g transform="translate(1708,793) scale(0.61,0.61)"><g transform="" style="fill: rgb(255, 0, 0);">
<rect width="100" height="100"/>
</g></g><g transform="translate(1952,793) scale(0.61,0.61)"><g transform="" style="fill: rgb(255, 0, 0);">
<rect width="100" height="100"/>
</g></g><g transform="translate(122,854) scale(0.61,0.61)"><g transform="" style="fill: rgb(255, 0, 0);">
<rect width="100" height="100"/>
</g></g><g transform="translate(244,854) scale(0.61,0.61)"><g transform="" style="fill: rgb(255, 0, 0);">
<rect width="100" height="100"/>
</g></g><g transform="translate(366,854) scale(0.61,0.61)"><g transform="" style="fill: rgb(255, 0, 0);">
<rect width="100" height="100"/>
</g></g><g transform="translate(488,854) scale(0.61,0.61)"><g transform="" style="fill: rgb(255, 0, 0);">
<rect width="100" height="100"/>
</g></g><g transform="translate(610,854) scale(0.61,0.61)"><g transform="" style="fill: rgb(255, 0, 0);">
<rect width="100" height="100"/>
</g></g><g transform="translate(854,854) scale(0.61,0.61)"><g transform="" style="fill: rgb(255, 0, 0);">
<rect width="100" height="100"/>
</g></g><g transform="translate(976,854) scale(0.61,0.61)"><g transform="" style="fill: rgb(255, 0, 0);">
<rect width="100" height="100"/>
</g></g><g transform="translate(1037,854) scale(0.61,0.61)"><g transform="" style="fill: rgb(255, 0, 0);">
<rect width="100" height="100"/>
</g></g><g transform="translate(1098,854) scale(0.61,0.61)"><g transform="" style="fill: rgb(255, 0, 0);">
<rect width="100" height="100"/>
</g></g><g transform="translate(1220,854) scale(0.61,0.61)"><g transform="" style="fill: rgb(255, 0, 0);">
<rect width="100" height="100"/>
</g></g><g transform="translate(1403,854) scale(0.61,0.61)"><g transform="" style="fill: rgb(255, 0, 0);">
<rect width="100" height="100"/>
</g></g><g transform="translate(1647,854) scale(0.61,0.61)"><g transform="" style="fill: rgb(255, 0, 0);">
<rect width="100" height="100"/>
</g></g><g transform="translate(1830,854) scale(0.61,0.61)"><g transform="" style="fill: rgb(255, 0, 0);">
<rect width="100" height="100"/>
</g></g><g transform="translate(1952,854) scale(0.61,0.61)"><g transform="" style="fill: rgb(255, 0, 0);">
<rect width="100" height="100"/>
</g></g><g transform="translate(244,915) scale(0.61,0.61)"><g transform="" style="fill: rgb(255, 0, 0);">
<rect width="100" height="100"/>
</g></g><g transform="translate(488,915) scale(0.61,0.61)"><g transform="" style="fill: rgb(255, 0, 0);">
<rect width="100" height="100"/>
</g></g><g transform="translate(610,915) scale(0.61,0.61)"><g transform="" style="fill: rgb(255, 0, 0);">
<rect width="100" height="100"/>
</g></g><g transform="translate(671,915) scale(0.61,0.61)"><g transform="" style="fill: rgb(255, 0, 0);">
<rect width="100" height="100"/>
</g></g><g transform="translate(854,915) scale(0.61,0.61)"><g transform="" style="fill: rgb(255, 0, 0);">
<rect width="100" height="100"/>
</g></g><g transform="translate(915,915) scale(0.61,0.61)"><g transform="" style="fill: rgb(255, 0, 0);">
<rect width="100" height="100"/>
</g></g><g transform="translate(976,915) scale(0.61,0.61)"><g transform="" style="fill: rgb(255, 0, 0);">
<rect width="100" height="100"/>
</g></g><g transform="translate(1037,915) scale(0.61,0.61)"><g transform="" style="fill: rgb(255, 0, 0);">
<rect width="100" height="100"/>
</g></g><g transform="translate(1159,915) scale(0.61,0.61)"><g transform="" style="fill: rgb(255, 0, 0);">
<rect width="100" height="100"/>
</g></g><g transform="translate(1220,915) scale(0.61,0.61)"><g transform="" style="fill: rgb(255, 0, 0);">
<rect width="100" height="100"/>
</g></g><g transform="translate(1342,915) scale(0.61,0.61)"><g transform="" style="fill: rgb(255, 0, 0);">
<rect width="100" height="100"/>
</g></g><g transform="translate(1403,915) scale(0.61,0.61)"><g transform="" style="fill: rgb(255, 0, 0);">
<rect width="100" height="100"/>
</g></g><g transform="translate(1464,915) scale(0.61,0.61)"><g transform="" style="fill: rgb(255, 0, 0);">
<rect width="100" height="100"/>
</g></g><g transform="translate(1586,915) scale(0.61,0.61)"><g transform="" style="fill: rgb(255, 0, 0);">
<rect width="100" height="100"/>
</g></g><g transform="translate(1647,915) scale(0.61,0.61)"><g transform="" style="fill: rgb(255, 0, 0);">
<rect width="100" height="100"/>
</g></g><g transform="translate(1708,915) scale(0.61,0.61)"><g transform="" style="fill: rgb(255, 0, 0);">
<rect width="100" height="100"/>
</g></g><g transform="translate(1769,915) scale(0.61,0.61)"><g transform="" style="fill: rgb(255, 0, 0);">
<rect width="100" height="100"/>
</g></g><g transform="translate(61,976) scale(0.61,0.61)"><g transform="" style="fill: rgb(255, 0, 0);">
<rect width="100" height="100"/>
</g></g><g transform="translate(122,976) scale(0.61,0.61)"><g transform="" style="fill: rgb(255, 0, 0);">
<rect width="100" height="100"/>
</g></g><g transform="translate(244,976) scale(0.61,0.61)"><g transform="" style="fill: rgb(255, 0, 0);">
<rect width="100" height="100"/>
</g></g><g transform="translate(305,976) scale(0.61,0.61)"><g transform="" style="fill: rgb(255, 0, 0);">
<rect width="100" height="100"/>
</g></g><g transform="translate(366,976) scale(0.61,0.61)"><g transform="" style="fill: rgb(255, 0, 0);">
<rect width="100" height="100"/>
</g></g><g transform="translate(427,976) scale(0.61,0.61)"><g transform="" style="fill: rgb(255, 0, 0);">
<rect width="100" height="100"/>
</g></g><g transform="translate(488,976) scale(0.61,0.61)"><g transform="" style="fill: rgb(255, 0, 0);">
<rect width="100" height="100"/>
</g></g><g transform="translate(549,976) scale(0.61,0.61)"><g transform="" style="fill: rgb(255, 0, 0);">
<rect width="100" height="100"/>
</g></g><g transform="translate(610,976) scale(0.61,0.61)"><g transform="" style="fill: rgb(255, 0, 0);">
<rect width="100" height="100"/>
</g></g><g transform="translate(854,976) scale(0.61,0.61)"><g transform="" style="fill: rgb(255, 0, 0);">
<rect width="100" height="100"/>
</g></g><g transform="translate(915,976) scale(0.61,0.61)"><g transform="" style="fill: rgb(255, 0, 0);">
<rect width="100" height="100"/>
</g></g><g transform="translate(1037,976) scale(0.61,0.61)"><g transform="" style="fill: rgb(255, 0, 0);">
<rect width="100" height="100"/>
</g></g><g transform="translate(1220,976) scale(0.61,0.61)"><g transform="" style="fill: rgb(255, 0, 0);">
<rect width="100" height="100"/>
</g></g><g transform="translate(1464,976) scale(0.61,0.61)"><g transform="" style="fill: rgb(255, 0, 0);">
<rect width="100" height="100"/>
</g></g><g transform="translate(1586,976) scale(0.61,0.61)"><g transform="" style="fill: rgb(255, 0, 0);">
<rect width="100" height="100"/>
</g></g><g transform="translate(1647,976) scale(0.61,0.61)"><g transform="" style="fill: rgb(255, 0, 0);">
<rect width="100" height="100"/>
</g></g><g transform="translate(1769,976) scale(0.61,0.61)"><g transform="" style="fill: rgb(255, 0, 0);">
<rect width="100" height="100"/>
</g></g><g transform="translate(183,1037) scale(0.61,0.61)"><g transform="" style="fill: rgb(255, 0, 0);">
<rect width="100" height="100"/>
</g></g><g transform="translate(305,1037) scale(0.61,0.61)"><g transform="" style="fill: rgb(255, 0, 0);">
<rect width="100" height="100"/>
</g></g><g transform="translate(427,1037) scale(0.61,0.61)"><g transform="" style="fill: rgb(255, 0, 0);">
<rect width="100" height="100"/>
</g></g><g transform="translate(671,1037) scale(0.61,0.61)"><g transform="" style="fill: rgb(255, 0, 0);">
<rect width="100" height="100"/>
</g></g><g transform="translate(793,1037) scale(0.61,0.61)"><g transform="" style="fill: rgb(255, 0, 0);">
<rect width="100" height="100"/>
</g></g><g transform="translate(915,1037) scale(0.61,0.61)"><g transform="" style="fill: rgb(255, 0, 0);">
<rect width="100" height="100"/>
</g></g><g transform="translate(976,1037) scale(0.61,0.61)"><g transform="" style="fill: rgb(255, 0, 0);">
<rect width="100" height="100"/>
</g></g><g transform="translate(1037,1037) scale(0.61,0.61)"><g transform="" style="fill: rgb(255, 0, 0);">
<rect width="100" height="100"/>
</g></g><g transform="translate(1220,1037) scale(0.61,0.61)"><g transform="" style="fill: rgb(255, 0, 0);">
<rect width="100" height="100"/>
</g></g><g transform="translate(1403,1037) scale(0.61,0.61)"><g transform="" style="fill: rgb(255, 0, 0);">
<rect width="100" height="100"/>
</g></g><g transform="translate(1525,1037) scale(0.61,0.61)"><g transform="" style="fill: rgb(255, 0, 0);">
<rect width="100" height="100"/>
</g></g><g transform="translate(1586,1037) scale(0.61,0.61)"><g transform="" style="fill: rgb(255, 0, 0);">
<rect width="100" height="100"/>
</g></g><g transform="translate(1647,1037) scale(0.61,0.61)"><g transform="" style="fill: rgb(255, 0, 0);">
<rect width="100" height="100"/>
</g></g><g transform="translate(1830,1037) scale(0.61,0.61)"><g transform="" style="fill: rgb(255, 0, 0);">
<rect width="100" height="100"/>
</g></g><g transform="translate(1952,1037) scale(0.61,0.61)"><g transform="" style="fill: rgb(255, 0, 0);">
<rect width="100" height="100"/>
</g></g><g transform="translate(0,1098) scale(0.61,0.61)"><g transform="" style="fill: rgb(255, 0, 0);">
<rect width="100" height="100"/>
</g></g><g transform="translate(61,1098) scale(0.61,0.61)"><g transform="" style="fill: rgb(255, 0, 0);">
<rect width="100" height="100"/>
</g></g><g transform="translate(183,1098) scale(0.61,0.61)"><g transform="" style="fill: rgb(255, 0, 0);">
<rect width="100" height="100"/>
</g></g><g transform="translate(244,1098) scale(0.61,0.61)"><g transform="" style="fill: rgb(255, 0, 0);">
<rect width="100" height="100"/>
</g></g><g transform="translate(305,1098) scale(0.61,0.61)"><g transform="" style="fill: rgb(255, 0, 0);">
<rect width="100" height="100"/>
</g></g><g transform="translate(366,1098) scale(0.61,0.61)"><g transform="" style="fill: rgb(255, 0, 0);">
<rect width="100" height="100"/>
</g></g><g transform="translate(427,1098) scale(0.61,0.61)"><g transform="" style="fill: rgb(255, 0, 0);">
<rect width="100" height="100"/>
</g></g><g transform="translate(488,1098) scale(0.61,0.61)"><g transform="" style="fill: rgb(255, 0, 0);">
<rect width="100" height="100"/>
</g></g><g transform="translate(671,1098) scale(0.61,0.61)"><g transform="" style="fill: rgb(255, 0, 0);">
<rect width="100" height="100"/>
</g></g><g transform="translate(854,1098) scale(0.61,0.61)"><g transform="" style="fill: rgb(255, 0, 0);">
<rect width="100" height="100"/>
</g></g><g transform="translate(915,1098) scale(0.61,0.61)"><g transform="" style="fill: rgb(255, 0, 0);">
<rect width="100" height="100"/>
</g></g><g transform="translate(1037,1098) scale(0.61,0.61)"><g transform="" style="fill: rgb(255, 0, 0);">
<rect width="100" height="100"/>
</g></g><g transform="translate(1159,1098) scale(0.61,0.61)"><g transform="" style="fill: rgb(255, 0, 0);">
<rect width="100" height="100"/>
</g></g><g transform="translate(1220,1098) scale(0.61,0.61)"><g transform="" style="fill: rgb(255, 0, 0);">
<rect width="100" height="100"/>
</g></g><g transform="translate(1403,1098) scale(0.61,0.61)"><g transform="" style="fill: rgb(255, 0, 0);">
<rect width="100" height="100"/>
</g></g><g transform="translate(1464,1098) scale(0.61,0.61)"><g transform="" style="fill: rgb(255, 0, 0);">
<rect width="100" height="100"/>
</g></g><g transform="translate(1525,1098) scale(0.61,0.61)"><g transform="" style="fill: rgb(255, 0, 0);">
<rect width="100" height="100"/>
</g></g><g transform="translate(1586,1098) scale(0.61,0.61)"><g transform="" style="fill: rgb(255, 0, 0);">
<rect width="100" height="100"/>
</g></g><g transform="translate(1708,1098) scale(0.61,0.61)"><g transform="" style="fill: rgb(255, 0, 0);">
<rect width="100" height="100"/>
</g></g><g transform="translate(1769,1098) scale(0.61,0.61)"><g transform="" style="fill: rgb(255, 0, 0);">
<rect width="100" height="100"/>
</g></g><g transform="translate(1830,1098) scale(0.61,0.61)"><g transform="" style="fill: rgb(255, 0, 0);">
<rect width="100" height="100"/>
</g></g><g transform="translate(1952,1098) scale(0.61,0.61)"><g transform="" style="fill: rgb(255, 0, 0);">
<rect width="100" height="100"/>
</g></g><g transform="translate(0,1159) scale(0.61,0.61)"><g transform="" style="fill: rgb(255, 0, 0);">
<rect width="100" height="100"/>
</g></g><g transform="translate(122,1159) scale(0.61,0.61)"><g transform="" style="fill: rgb(255, 0, 0);">
<rect width="100" height="100"/>
</g></g><g transform="translate(305,1159) scale(0.61,0.61)"><g transform="" style="fill: rgb(255, 0, 0);">
<rect width="100" height="100"/>
</g></g><g transform="translate(488,1159) scale(0.61,0.61)"><g transform="" style="fill: rgb(255, 0, 0);">
<rect width="100" height="100"/>
</g></g><g transform="translate(549,1159) scale(0.61,0.61)"><g transform="" style="fill: rgb(255, 0, 0);">
<rect width="100" height="100"/>
</g></g><g transform="translate(610,1159) scale(0.61,0.61)"><g transform="" style="fill: rgb(255, 0, 0);">
<rect width="100" height="100"/>
</g></g><g transform="translate(732,1159) scale(0.61,0.61)"><g transform="" style="fill: rgb(255, 0, 0);">
<rect width="100" height="100"/>
</g></g><g transform="translate(793,1159) scale(0.61,0.61)"><g transform="" style="fill: rgb(255, 0, 0);">
<rect width="100" height="100"/>
</g></g><g transform="translate(1037,1159) scale(0.61,0.61)"><g transform="" style="fill: rgb(255, 0, 0);">
<rect width="100" height="100"/>
</g></g><g transform="translate(1403,1159) scale(0.61,0.61)"><g transform="" style="fill: rgb(255, 0, 0);">
<rect width="100" height="100"/>
</g></g><g transform="translate(1525,1159) scale(0.61,0.61)"><g transform="" style="fill: rgb(255, 0, 0);">
<rect width="100" height="100"/>
</g></g><g transform="translate(1708,1159) scale(0.61,0.61)"><g transform="" style="fill: rgb(255, 0, 0);">
<rect width="100" height="100"/>
</g></g><g transform="translate(1769,1159) scale(0.61,0.61)"><g transform="" style="fill: rgb(255, 0, 0);">
<rect width="100" height="100"/>
</g></g><g transform="translate(1952,1159) scale(0.61,0.61)"><g transform="" style="fill: rgb(255, 0, 0);">
<rect width="100" height="100"/>
</g></g><g transform="translate(0,1220) scale(0.61,0.61)"><g transform="" style="fill: rgb(255, 0, 0);">
<rect width="100" height="100"/>
</g></g><g transform="translate(61,1220) scale(0.61,0.61)"><g transform="" style="fill: rgb(255, 0, 0);">
<rect width="100" height="100"/>
</g></g><g transform="translate(244,1220) scale(0.61,0.61)"><g transform="" style="fill: rgb(255, 0, 0);">
<rect width="100" height="100"/>
</g></g><g transform="translate(366,1220) scale(0.61,0.61)"><g transform="" style="fill: rgb(255, 0, 0);">
<rect width="100" height="100"/>
</g></g><g transform="translate(427,1220) scale(0.61,0.61)"><g transform="" style="fill: rgb(255, 0, 0);">
<rect width="100" height="100"/>
</g></g><g transform="translate(610,1220) scale(0.61,0.61)"><g transform="" style="fill: rgb(255, 0, 0);">
<rect width="100" height="100"/>
</g></g><g transform="translate(671,1220) scale(0.61,0.61)"><g transform="" style="fill: rgb(255, 0, 0);">
<rect width="100" height="100"/>
</g></g><g transform="translate(793,1220) scale(0.61,0.61)"><g transform="" style="fill: rgb(255, 0, 0);">
<rect width="100" height="100"/>
</g></g><g transform="translate(976,1220) scale(0.61,0.61)"><g transform="" style="fill: rgb(255, 0, 0);">
<rect width="100" height="100"/>
</g></g><g transform="translate(1098,1220) scale(0.61,0.61)"><g transform="" style="fill: rgb(255, 0, 0);">
<rect width="100" height="100"/>
</g></g><g transform="translate(1159,1220) scale(0.61,0.61)"><g transform="" style="fill: rgb(255, 0, 0);">
<rect width="100" height="100"/>
</g></g><g transform="translate(1464,1220) scale(0.61,0.61)"><g transform="" style="fill: rgb(255, 0, 0);">
<rect width="100" height="100"/>
</g></g><g transform="translate(1525,1220) scale(0.61,0.61)"><g transform="" style="fill: rgb(255, 0, 0);">
<rect width="100" height="100"/>
</g></g><g transform="translate(1586,1220) scale(0.61,0.61)"><g transform="" style="fill: rgb(255, 0, 0);">
<rect width="100" height="100"/>
</g></g><g transform="translate(1647,1220) scale(0.61,0.61)"><g transform="" style="fill: rgb(255, 0, 0);">
<rect width="100" height="100"/>
</g></g><g transform="translate(1891,1220) scale(0.61,0.61)"><g transform="" style="fill: rgb(255, 0, 0);">
<rect width="100" height="100"/>
</g></g><g transform="translate(1952,1220) scale(0.61,0.61)"><g transform="" style="fill: rgb(255, 0, 0);">
<rect width="100" height="100"/>
</g></g><g transform="translate(244,1281) scale(0.61,0.61)"><g transform="" style="fill: rgb(255, 0, 0);">
<rect width="100" height="100"/>
</g></g><g transform="translate(549,1281) scale(0.61,0.61)"><g transform="" style="fill: rgb(255, 0, 0);">
<rect width="100" height="100"/>
</g></g><g transform="translate(610,1281) scale(0.61,0.61)"><g transform="" style="fill: rgb(255, 0, 0);">
<rect width="100" height="100"/>
</g></g><g transform="translate(671,1281) scale(0.61,0.61)"><g transform="" style="fill: rgb(255, 0, 0);">
<rect width="100" height="100"/>
</g></g><g transform="translate(793,1281) scale(0.61,0.61)"><g transform="" style="fill: rgb(255, 0, 0);">
<rect width="100" height="100"/>
</g></g><g transform="translate(854,1281) scale(0.61,0.61)"><g transform="" style="fill: rgb(255, 0, 0);">
<rect width="100" height="100"/>
</g></g><g transform="translate(976,1281) scale(0.61,0.61)"><g transform="" style="fill: rgb(255, 0, 0);">
<rect width="100" height="100"/>
</g></g><g transform="translate(1464,1281) scale(0.61,0.61)"><g transform="" style="fill: rgb(255, 0, 0);">
<rect width="100" height="100"/>
</g></g><g transform="translate(1525,1281) scale(0.61,0.61)"><g transform="" style="fill: rgb(255, 0, 0);">
<rect width="100" height="100"/>
</g></g><g transform="translate(1647,1281) scale(0.61,0.61)"><g transform="" style="fill: rgb(255, 0, 0);">
<rect width="100" height="100"/>
</g></g><g transform="translate(1769,1281) scale(0.61,0.61)"><g transform="" style="fill: rgb(255, 0, 0);">
<rect width="100" height="100"/>
</g></g><g transform="translate(1891,1281) scale(0.61,0.61)"><g transform="" style="fill: rgb(255, 0, 0);">
<rect width="100" height="100"/>
</g></g><g transform="translate(1952,1281) scale(0.61,0.61)"><g transform="" style="fill: rgb(255, 0, 0);">
<rect width="100" height="100"/>
</g></g><g transform="translate(0,1342) scale(0.61,0.61)"><g transform="" style="fill: rgb(255, 0, 0);">
<rect width="100" height="100"/>
</g></g><g transform="translate(61,1342) scale(0.61,0.61)"><g transform="" style="fill: rgb(255, 0, 0);">
<rect width="100" height="100"/>
</g></g><g transform="translate(183,1342) scale(0.61,0.61)"><g transform="" style="fill: rgb(255, 0, 0);">
<rect width="100" height="100"/>
</g></g><g transform="translate(244,1342) scale(0.61,0.61)"><g transform="" style="fill: rgb(255, 0, 0);">
<rect width="100" height="100"/>
</g></g><g transform="translate(366,1342) scale(0.61,0.61)"><g transform="" style="fill: rgb(255, 0, 0);">
<rect width="100" height="100"/>
</g></g><g transform="translate(549,1342) scale(0.61,0.61)"><g transform="" style="fill: rgb(255, 0, 0);">
<rect width="100" height="100"/>
</g></g><g transform="translate(732,1342) scale(0.61,0.61)"><g transform="" style="fill: rgb(255, 0, 0);">
<rect width="100" height="100"/>
</g></g><g transform="translate(854,1342) scale(0.61,0.61)"><g transform="" style="fill: rgb(255, 0, 0);">
<rect width="100" height="100"/>
</g></g><g transform="translate(915,1342) scale(0.61,0.61)"><g transform="" style="fill: rgb(255, 0, 0);">
<rect width="100" height="100"/>
</g></g><g transform="translate(976,1342) scale(0.61,0.61)"><g transform="" style="fill: rgb(255, 0, 0);">
<rect width="100" height="100"/>
</g></g><g transform="translate(1037,1342) scale(0.61,0.61)"><g transform="" style="fill: rgb(255, 0, 0);">
<rect width="100" height="100"/>
</g></g><g transform="translate(1220,1342) scale(0.61,0.61)"><g transform="" style="fill: rgb(255, 0, 0);">
<rect width="100" height="100"/>
</g></g><g transform="translate(1464,1342) scale(0.61,0.61)"><g transform="" style="fill: rgb(255, 0, 0);">
<rect width="100" height="100"/>
</g></g><g transform="translate(1525,1342) scale(0.61,0.61)"><g transform="" style="fill: rgb(255, 0, 0);">
<rect width="100" height="100"/>
</g></g><g transform="translate(1586,1342) scale(0.61,0.61)"><g transform="" style="fill: rgb(255, 0, 0);">
<rect width="100" height="100"/>
</g></g><g transform="translate(1647,1342) scale(0.61,0.61)"><g transform="" style="fill: rgb(255, 0, 0);">
<rect width="100" height="100"/>
</g></g><g transform="translate(1769,1342) scale(0.61,0.61)"><g transform="" style="fill: rgb(255, 0, 0);">
<rect width="100" height="100"/>
</g></g><g transform="translate(1830,1342) scale(0.61,0.61)"><g transform="" style="fill: rgb(255, 0, 0);">
<rect width="100" height="100"/>
</g></g><g transform="translate(1952,1342) scale(0.61,0.61)"><g transform="" style="fill: rgb(255, 0, 0);">
<rect width="100" height="100"/>
</g></g><g transform="translate(244,1403) scale(0.61,0.61)"><g transform="" style="fill: rgb(255, 0, 0);">
<rect width="100" height="100"/>
</g></g><g transform="translate(305,1403) scale(0.61,0.61)"><g transform="" style="fill: rgb(255, 0, 0);">
<rect width="100" height="100"/>
</g></g><g transform="translate(488,1403) scale(0.61,0.61)"><g transform="" style="fill: rgb(255, 0, 0);">
<rect width="100" height="100"/>
</g></g><g transform="translate(671,1403) scale(0.61,0.61)"><g transform="" style="fill: rgb(255, 0, 0);">
<rect width="100" height="100"/>
</g></g><g transform="translate(793,1403) scale(0.61,0.61)"><g transform="" style="fill: rgb(255, 0, 0);">
<rect width="100" height="100"/>
</g></g><g transform="translate(915,1403) scale(0.61,0.61)"><g transform="" style="fill: rgb(255, 0, 0);">
<rect width="100" height="100"/>
</g></g><g transform="translate(976,1403) scale(0.61,0.61)"><g transform="" style="fill: rgb(255, 0, 0);">
<rect width="100" height="100"/>
</g></g><g transform="translate(1037,1403) scale(0.61,0.61)"><g transform="" style="fill: rgb(255, 0, 0);">
<rect width="100" height="100"/>
</g></g><g transform="translate(1342,1403) scale(0.61,0.61)"><g transform="" style="fill: rgb(255, 0, 0);">
<rect width="100" height="100"/>
</g></g><g transform="translate(1403,1403) scale(0.61,0.61)"><g transform="" style="fill: rgb(255, 0, 0);">
<rect width="100" height="100"/>
</g></g><g transform="translate(1464,1403) scale(0.61,0.61)"><g transform="" style="fill: rgb(255, 0, 0);">
<rect width="100" height="100"/>
</g></g><g transform="translate(1647,1403) scale(0.61,0.61)"><g transform="" style="fill: rgb(255, 0, 0);">
<rect width="100" height="100"/>
</g></g><g transform="translate(1708,1403) scale(0.61,0.61)"><g transform="" style="fill: rgb(255, 0, 0);">
<rect width="100" height="100"/>
</g></g><g transform="translate(1891,1403) scale(0.61,0.61)"><g transform="" style="fill: rgb(255, 0, 0);">
<rect width="100" height="100"/>
</g></g><g transform="translate(0,1464) scale(0.61,0.61)"><g transform="" style="fill: rgb(255, 0, 0);">
<rect width="100" height="100"/>
</g></g><g transform="translate(61,1464) scale(0.61,0.61)"><g transform="" style="fill: rgb(255, 0, 0);">
<rect width="100" height="100"/>
</g></g><g transform="translate(244,1464) scale(0.61,0.61)"><g transform="" style="fill: rgb(255, 0, 0);">
<rect width="100" height="100"/>
</g></g><g transform="translate(366,1464) scale(0.61,0.61)"><g transform="" style="fill: rgb(255, 0, 0);">
<rect width="100" height="100"/>
</g></g><g transform="translate(427,1464) scale(0.61,0.61)"><g transform="" style="fill: rgb(255, 0, 0);">
<rect width="100" height="100"/>
</g></g><g transform="translate(671,1464) scale(0.61,0.61)"><g transform="" style="fill: rgb(255, 0, 0);">
<rect width="100" height="100"/>
</g></g><g transform="translate(732,1464) scale(0.61,0.61)"><g transform="" style="fill: rgb(255, 0, 0);">
<rect width="100" height="100"/>
</g></g><g transform="translate(854,1464) scale(0.61,0.61)"><g transform="" style="fill: rgb(255, 0, 0);">
<rect width="100" height="100"/>
</g></g><g transform="translate(1037,1464) scale(0.61,0.61)"><g transform="" style="fill: rgb(255, 0, 0);">
<rect width="100" height="100"/>
</g></g><g transform="translate(1098,1464) scale(0.61,0.61)"><g transform="" style="fill: rgb(255, 0, 0);">
<rect width="100" height="100"/>
</g></g><g transform="translate(1220,1464) scale(0.61,0.61)"><g transform="" style="fill: rgb(255, 0, 0);">
<rect width="100" height="100"/>
</g></g><g transform="translate(1464,1464) scale(0.61,0.61)"><g transform="" style="fill: rgb(255, 0, 0);">
<rect width="100" height="100"/>
</g></g><g transform="translate(1525,1464) scale(0.61,0.61)"><g transform="" style="fill: rgb(255, 0, 0);">
<rect width="100" height="100"/>
</g></g><g transform="translate(1586,1464) scale(0.61,0.61)"><g transform="" style="fill: rgb(255, 0, 0);">
<rect width="100" height="100"/>
</g></g><g transform="translate(1647,1464) scale(0.61,0.61)"><g transform="" style="fill: rgb(255, 0, 0);">
<rect width="100" height="100"/>
</g></g><g transform="translate(1708,1464) scale(0.61,0.61)"><g transform="" style="fill: rgb(255, 0, 0);">
<rect width="100" height="100"/>
</g></g><g transform="translate(1769,1464) scale(0.61,0.61)"><g transform="" style="fill: rgb(255, 0, 0);">
<rect width="100" height="100"/>
</g></g><g transform="translate(1891,1464) scale(0.61,0.61)"><g transform="" style="fill: rgb(255, 0, 0);">
<rect width="100" height="100"/>
</g></g><g transform="translate(488,1525) scale(0.61,0.61)"><g transform="" style="fill: rgb(255, 0, 0);">
<rect width="100" height="100"/>
</g></g><g transform="translate(549,1525) scale(0.61,0.61)"><g transform="" style="fill: rgb(255, 0, 0);">
<rect width="100" height="100"/>
</g></g><g transform="translate(610,1525) scale(0.61,0.61)"><g transform="" style="fill: rgb(255, 0, 0);">
<rect width="100" height="100"/>
</g></g><g transform="translate(671,1525) scale(0.61,0.61)"><g transform="" style="fill: rgb(255, 0, 0);">
<rect width="100" height="100"/>
</g></g><g transform="translate(793,1525) scale(0.61,0.61)"><g transform="" style="fill: rgb(255, 0, 0);">
<rect width="100" height="100"/>
</g></g><g transform="translate(854,1525) scale(0.61,0.61)"><g transform="" style="fill: rgb(255, 0, 0);">
<rect width="100" height="100"/>
</g></g><g transform="translate(1342,1525) scale(0.61,0.61)"><g transform="" style="fill: rgb(255, 0, 0);">
<rect width="100" height="100"/>
</g></g><g transform="translate(1403,1525) scale(0.61,0.61)"><g transform="" style="fill: rgb(255, 0, 0);">
<rect width="100" height="100"/>
</g></g><g transform="translate(1464,1525) scale(0.61,0.61)"><g transform="" style="fill: rgb(255, 0, 0);">
<rect width="100" height="100"/>
</g></g><g transform="translate(1708,1525) scale(0.61,0.61)"><g transform="" style="fill: rgb(255, 0, 0);">
<rect width="100" height="100"/>
</g></g><g transform="translate(1769,1525) scale(0.61,0.61)"><g transform="" style="fill: rgb(255, 0, 0);">
<rect width="100" height="100"/>
</g></g><g transform="translate(1830,1525) scale(0.61,0.61)"><g transform="" style="fill: rgb(255, 0, 0);">
<rect width="100" height="100"/>
</g></g><g transform="translate(1952,1525) scale(0.61,0.61)"><g transform="" style="fill: rgb(255, 0, 0);">
<rect width="100" height="100"/>
</g></g><g transform="translate(488,1586) scale(0.61,0.61)"><g transform="" style="fill: rgb(255, 0, 0);">
<rect width="100" height="100"/>
</g></g><g transform="translate(610,1586) scale(0.61,0.61)"><g transform="" style="fill: rgb(255, 0, 0);">
<rect width="100" height="100"/>
</g></g><g transform="translate(671,1586) scale(0.61,0.61)"><g transform="" style="fill: rgb(255, 0, 0);">
<rect width="100" height="100"/>
</g></g><g transform="translate(793,1586) scale(0.61,0.61)"><g transform="" style="fill: rgb(255, 0, 0);">
<rect width="100" height="100"/>
</g></g><g transform="translate(915,1586) scale(0.61,0.61)"><g transform="" style="fill: rgb(255, 0, 0);">
<rect width="100" height="100"/>
</g></g><g transform="translate(1159,1586) scale(0.61,0.61)"><g transform="" style="fill: rgb(255, 0, 0);">
<rect width="100" height="100"/>
</g></g><g transform="translate(1281,1586) scale(0.61,0.61)"><g transform="" style="fill: rgb(255, 0, 0);">
<rect width="100" height="100"/>
</g></g><g transform="translate(1342,1586) scale(0.61,0.61)"><g transform="" style="fill: rgb(255, 0, 0);">
<rect width="100" height="100"/>
</g></g><g transform="translate(1464,1586) scale(0.61,0.61)"><g transform="" style="fill: rgb(255, 0, 0);">
<rect width="100" height="100"/>
</g></g><g transform="translate(1586,1586) scale(0.61,0.61)"><g transform="" style="fill: rgb(255, 0, 0);">
<rect width="100" height="100"/>
</g></g><g transform="translate(1708,1586) scale(0.61,0.61)"><g transform="" style="fill: rgb(255, 0, 0);">
<rect width="100" height="100"/>
</g></g><g transform="translate(1830,1586) scale(0.61,0.61)"><g transform="" style="fill: rgb(255, 0, 0);">
<rect width="100" height="100"/>
</g></g><g transform="translate(1952,1586) scale(0.61,0.61)"><g transform="" style="fill: rgb(255, 0, 0);">
<rect width="100" height="100"/>
</g></g><g transform="translate(488,1647) scale(0.61,0.61)"><g transform="" style="fill: rgb(255, 0, 0);">
<rect width="100" height="100"/>
</g></g><g transform="translate(549,1647) scale(0.61,0.61)"><g transform="" style="fill: rgb(255, 0, 0);">
<rect width="100" height="100"/>
</g></g><g transform="translate(610,1647) scale(0.61,0.61)"><g transform="" style="fill: rgb(255, 0, 0);">
<rect width="100" height="100"/>
</g></g><g transform="translate(732,1647) scale(0.61,0.61)"><g transform="" style="fill: rgb(255, 0, 0);">
<rect width="100" height="100"/>
</g></g><g transform="translate(915,1647) scale(0.61,0.61)"><g transform="" style="fill: rgb(255, 0, 0);">
<rect width="100" height="100"/>
</g></g><g transform="translate(1037,1647) scale(0.61,0.61)"><g transform="" style="fill: rgb(255, 0, 0);">
<rect width="100" height="100"/>
</g></g><g transform="translate(1342,1647) scale(0.61,0.61)"><g transform="" style="fill: rgb(255, 0, 0);">
<rect width="100" height="100"/>
</g></g><g transform="translate(1403,1647) scale(0.61,0.61)"><g transform="" style="fill: rgb(255, 0, 0);">
<rect width="100" height="100"/>
</g></g><g transform="translate(1464,1647) scale(0.61,0.61)"><g transform="" style="fill: rgb(255, 0, 0);">
<rect width="100" height="100"/>
</g></g><g transform="translate(1708,1647) scale(0.61,0.61)"><g transform="" style="fill: rgb(255, 0, 0);">
<rect width="100" height="100"/>
</g></g><g transform="translate(1769,1647) scale(0.61,0.61)"><g transform="" style="fill: rgb(255, 0, 0);">
<rect width="100" height="100"/>
</g></g><g transform="translate(1952,1647) scale(0.61,0.61)"><g transform="" style="fill: rgb(255, 0, 0);">
<rect width="100" height="100"/>
</g></g><g transform="translate(610,1708) scale(0.61,0.61)"><g transform="" style="fill: rgb(255, 0, 0);">
<rect width="100" height="100"/>
</g></g><g transform="translate(671,1708) scale(0.61,0.61)"><g transform="" style="fill: rgb(255, 0, 0);">
<rect width="100" height="100"/>
</g></g><g transform="translate(793,1708) scale(0.61,0.61)"><g transform="" style="fill: rgb(255, 0, 0);">
<rect width="100" height="100"/>
</g></g><g transform="translate(854,1708) scale(0.61,0.61)"><g transform="" style="fill: rgb(255, 0, 0);">
<rect width="100" height="100"/>
</g></g><g transform="translate(915,1708) scale(0.61,0.61)"><g transform="" style="fill: rgb(255, 0, 0);">
<rect width="100" height="100"/>
</g></g><g transform="translate(976,1708) scale(0.61,0.61)"><g transform="" style="fill: rgb(255, 0, 0);">
<rect width="100" height="100"/>
</g></g><g transform="translate(1098,1708) scale(0.61,0.61)"><g transform="" style="fill: rgb(255, 0, 0);">
<rect width="100" height="100"/>
</g></g><g transform="translate(1281,1708) scale(0.61,0.61)"><g transform="" style="fill: rgb(255, 0, 0);">
<rect width="100" height="100"/>
</g></g><g transform="translate(1342,1708) scale(0.61,0.61)"><g transform="" style="fill: rgb(255, 0, 0);">
<rect width="100" height="100"/>
</g></g><g transform="translate(1403,1708) scale(0.61,0.61)"><g transform="" style="fill: rgb(255, 0, 0);">
<rect width="100" height="100"/>
</g></g><g transform="translate(1464,1708) scale(0.61,0.61)"><g transform="" style="fill: rgb(255, 0, 0);">
<rect width="100" height="100"/>
</g></g><g transform="translate(1525,1708) scale(0.61,0.61)"><g transform="" style="fill: rgb(255, 0, 0);">
<rect width="100" height="100"/>
</g></g><g transform="translate(1586,1708) scale(0.61,0.61)"><g transform="" style="fill: rgb(255, 0, 0);">
<rect width="100" height="100"/>
</g></g><g transform="translate(1647,1708) scale(0.61,0.61)"><g transform="" style="fill: rgb(255, 0, 0);">
<rect width="100" height="100"/>
</g></g><g transform="translate(1708,1708) scale(0.61,0.61)"><g transform="" style="fill: rgb(255, 0, 0);">
<rect width="100" height="100"/>
</g></g><g transform="translate(1769,1708) scale(0.61,0.61)"><g transform="" style="fill: rgb(255, 0, 0);">
<rect width="100" height="100"/>
</g></g><g transform="translate(1891,1708) scale(0.61,0.61)"><g transform="" style="fill: rgb(255, 0, 0);">
<rect width="100" height="100"/>
</g></g><g transform="translate(1952,1708) scale(0.61,0.61)"><g transform="" style="fill: rgb(255, 0, 0);">
<rect width="100" height="100"/>
</g></g><g transform="translate(549,1769) scale(0.61,0.61)"><g transform="" style="fill: rgb(255, 0, 0);">
<rect width="100" height="100"/>
</g></g><g transform="translate(671,1769) scale(0.61,0.61)"><g transform="" style="fill: rgb(255, 0, 0);">
<rect width="100" height="100"/>
</g></g><g transform="translate(793,1769) scale(0.61,0.61)"><g transform="" style="fill: rgb(255, 0, 0);">
<rect width="100" height="100"/>
</g></g><g transform="translate(915,1769) scale(0.61,0.61)"><g transform="" style="fill: rgb(255, 0, 0);">
<rect width="100" height="100"/>
</g></g><g transform="translate(1220,1769) scale(0.61,0.61)"><g transform="" style="fill: rgb(255, 0, 0);">
<rect width="100" height="100"/>
</g></g><g transform="translate(1281,1769) scale(0.61,0.61)"><g transform="" style="fill: rgb(255, 0, 0);">
<rect width="100" height="100"/>
</g></g><g transform="translate(1342,1769) scale(0.61,0.61)"><g transform="" style="fill: rgb(255, 0, 0);">
<rect width="100" height="100"/>
</g></g><g transform="translate(1403,1769) scale(0.61,0.61)"><g transform="" style="fill: rgb(255, 0, 0);">
<rect width="100" height="100"/>
</g></g><g transform="translate(1464,1769) scale(0.61,0.61)"><g transform="" style="fill: rgb(255, 0, 0);">
<rect width="100" height="100"/>
</g></g><g transform="translate(1647,1769) scale(0.61,0.61)"><g transform="" style="fill: rgb(255, 0, 0);">
<rect width="100" height="100"/>
</g></g><g transform="translate(1708,1769) scale(0.61,0.61)"><g transform="" style="fill: rgb(255, 0, 0);">
<rect width="100" height="100"/>
</g></g><g transform="translate(1769,1769) scale(0.61,0.61)"><g transform="" style="fill: rgb(255, 0, 0);">
<rect width="100" height="100"/>
</g></g><g transform="translate(1830,1769) scale(0.61,0.61)"><g transform="" style="fill: rgb(255, 0, 0);">
<rect width="100" height="100"/>
</g></g><g transform="translate(1891,1769) scale(0.61,0.61)"><g transform="" style="fill: rgb(255, 0, 0);">
<rect width="100" height="100"/>
</g></g><g transform="translate(488,1830) scale(0.61,0.61)"><g transform="" style="fill: rgb(255, 0, 0);">
<rect width="100" height="100"/>
</g></g><g transform="translate(549,1830) scale(0.61,0.61)"><g transform="" style="fill: rgb(255, 0, 0);">
<rect width="100" height="100"/>
</g></g><g transform="translate(610,1830) scale(0.61,0.61)"><g transform="" style="fill: rgb(255, 0, 0);">
<rect width="100" height="100"/>
</g></g><g transform="translate(732,1830) scale(0.61,0.61)"><g transform="" style="fill: rgb(255, 0, 0);">
<rect width="100" height="100"/>
</g></g><g transform="translate(854,1830) scale(0.61,0.61)"><g transform="" style="fill: rgb(255, 0, 0);">
<rect width="100" height="100"/>
</g></g><g transform="translate(915,1830) scale(0.61,0.61)"><g transform="" style="fill: rgb(255, 0, 0);">
<rect width="100" height="100"/>
</g></g><g transform="translate(976,1830) scale(0.61,0.61)"><g transform="" style="fill: rgb(255, 0, 0);">
<rect width="100" height="100"/>
</g></g><g transform="translate(1098,1830) scale(0.61,0.61)"><g transform="" style="fill: rgb(255, 0, 0);">
<rect width="100" height="100"/>
</g></g><g transform="translate(1220,1830) scale(0.61,0.61)"><g transform="" style="fill: rgb(255, 0, 0);">
<rect width="100" height="100"/>
</g></g><g transform="translate(1281,1830) scale(0.61,0.61)"><g transform="" style="fill: rgb(255, 0, 0);">
<rect width="100" height="100"/>
</g></g><g transform="translate(1403,1830) scale(0.61,0.61)"><g transform="" style="fill: rgb(255, 0, 0);">
<rect width="100" height="100"/>
</g></g><g transform="translate(1464,1830) scale(0.61,0.61)"><g transform="" style="fill: rgb(255, 0, 0);">
<rect width="100" height="100"/>
</g></g><g transform="translate(1708,1830) scale(0.61,0.61)"><g transform="" style="fill: rgb(255, 0, 0);">
<rect width="100" height="100"/>
</g></g><g transform="translate(1830,1830) scale(0.61,0.61)"><g transform="" style="fill: rgb(255, 0, 0);">
<rect width="100" height="100"/>
</g></g><g transform="translate(1891,1830) scale(0.61,0.61)"><g transform="" style="fill: rgb(255, 0, 0);">
<rect width="100" height="100"/>
</g></g><g transform="translate(1952,1830) scale(0.61,0.61)"><g transform="" style="fill: rgb(255, 0, 0);">
<rect width="100" height="100"/>
</g></g><g transform="translate(610,1891) scale(0.61,0.61)"><g transform="" style="fill: rgb(255, 0, 0);">
<rect width="100" height="100"/>
</g></g><g transform="translate(671,1891) scale(0.61,0.61)"><g transform="" style="fill: rgb(255, 0, 0);">
<rect width="100" height="100"/>
</g></g><g transform="translate(732,1891) scale(0.61,0.61)"><g transform="" style="fill: rgb(255, 0, 0);">
<rect width="100" height="100"/>
</g></g><g transform="translate(793,1891) scale(0.61,0.61)"><g transform="" style="fill: rgb(255, 0, 0);">
<rect width="100" height="100"/>
</g></g><g transform="translate(976,1891) scale(0.61,0.61)"><g transform="" style="fill: rgb(255, 0, 0);">
<rect width="100" height="100"/>
</g></g><g transform="translate(1098,1891) scale(0.61,0.61)"><g transform="" style="fill: rgb(255, 0, 0);">
<rect width="100" height="100"/>
</g></g><g transform="translate(1464,1891) scale(0.61,0.61)"><g transform="" style="fill: rgb(255, 0, 0);">
<rect width="100" height="100"/>
</g></g><g transform="translate(1586,1891) scale(0.61,0.61)"><g transform="" style="fill: rgb(255, 0, 0);">
<rect width="100" height="100"/>
</g></g><g transform="translate(610,1952) scale(0.61,0.61)"><g transform="" style="fill: rgb(255, 0, 0);">
<rect width="100" height="100"/>
</g></g><g transform="translate(671,1952) scale(0.61,0.61)"><g transform="" style="fill: rgb(255, 0, 0);">
<rect width="100" height="100"/>
</g></g><g transform="translate(793,1952) scale(0.61,0.61)"><g transform="" style="fill: rgb(255, 0, 0);">
<rect width="100" height="100"/>
</g></g><g transform="translate(1098,1952) scale(0.61,0.61)"><g transform="" style="fill: rgb(255, 0, 0);">
<rect width="100" height="100"/>
</g></g><g transform="translate(1159,1952) scale(0.61,0.61)"><g transform="" style="fill: rgb(255, 0, 0);">
<rect width="100" height="100"/>
</g></g><g transform="translate(1220,1952) scale(0.61,0.61)"><g transform="" style="fill: rgb(255, 0, 0);">
<rect width="100" height="100"/>
</g></g><g transform="translate(1342,1952) scale(0.61,0.61)"><g transform="" style="fill: rgb(255, 0, 0);">
<rect width="100" height="100"/>
</g></g><g transform="translate(1403,1952) scale(0.61,0.61)"><g transform="" style="fill: rgb(255, 0, 0);">
<rect width="100" height="100"/>
</g></g><g transform="translate(1464,1952) scale(0.61,0.61)"><g transform="" style="fill: rgb(255, 0, 0);">
<rect width="100" height="100"/>
</g></g><g transform="translate(1586,1952) scale(0.61,0.61)"><g transform="" style="fill: rgb(255, 0, 0);">
<rect width="100" height="100"/>
</g></g><g transform="translate(1708,1952) scale(0.61,0.61)"><g transform="" style="fill: rgb(255, 0, 0);">
<rect width="100" height="100"/>
</g></g><g transform="translate(1769,1952) scale(0.61,0.61)"><g transform="" style="fill: rgb(255, 0, 0);">
<rect width="100" height="100"/>
</g></g><g transform="translate(1830,1952) scale(0.61,0.61)"><g transform="" style="fill: rgb(255, 0, 0);">
<rect width="100" height="100"/>
</g></g><g transform="translate(1952,1952) scale(0.61,0.61)"><g transform="" style="fill: rgb(255, 0, 0);">
<rect width="100" height="100"/>
</g></g><g transform="translate(0,0) scale(4.27, 4.27)"><g transform="" style="fill: rgb(255, 0, 0);">
<path d="M21.475,99.992c-6.648,0-12.964-6.852-13.958-13.207L0.011-0.008l88.112,5.649c6.212,0.931,11.096,6.804,11.104,13.848
	l0.762,80.503H21.475z M85.706,85.71l-0.544-57.492c-0.005-5.029-3.495-9.233-7.931-9.898l-62.938-4.03l5.36,61.98
	c0.71,4.536,5.222,9.44,9.971,9.44H85.706z"/>
</g></g><g transform="translate(1586,0) scale(4.27, 4.27)"><g transform=" translate(100, 0) scale(-1,1) " style="fill: rgb(255, 0, 0);">
<path d="M21.475,99.992c-6.648,0-12.964-6.852-13.958-13.207L0.011-0.008l88.112,5.649c6.212,0.931,11.096,6.804,11.104,13.848
	l0.762,80.503H21.475z M85.706,85.71l-0.544-57.492c-0.005-5.029-3.495-9.233-7.931-9.898l-62.938-4.03l5.36,61.98
	c0.71,4.536,5.222,9.44,9.971,9.44H85.706z"/>
</g></g><g transform="translate(0,1586) scale(4.27, 4.27)"><g transform=" translate(0,100) scale(1,-1) " style="fill: rgb(255, 0, 0);">
<path d="M21.475,99.992c-6.648,0-12.964-6.852-13.958-13.207L0.011-0.008l88.112,5.649c6.212,0.931,11.096,6.804,11.104,13.848
	l0.762,80.503H21.475z M85.706,85.71l-0.544-57.492c-0.005-5.029-3.495-9.233-7.931-9.898l-62.938-4.03l5.36,61.98
	c0.71,4.536,5.222,9.44,9.971,9.44H85.706z"/>
</g></g><g transform="translate(122,122) scale(1.83, 1.83)"><g transform="" style="fill: rgb(255, 0, 0);">
<path d="M21.468,99.999c-6.65,0-12.966-6.875-13.959-13.225L0.003-0.001L88.13,5.638c6.21,0.93,11.099,6.823,11.105,13.866
	l0.762,80.495H21.468z"/>
</g></g><g transform="translate(1708,122) scale(1.83, 1.83)"><g transform=" translate(100, 0) scale(-1,1) " style="fill: rgb(255, 0, 0);">
<path d="M21.468,99.999c-6.65,0-12.966-6.875-13.959-13.225L0.003-0.001L88.13,5.638c6.21,0.93,11.099,6.823,11.105,13.866
	l0.762,80.495H21.468z"/>
</g></g><g transform="translate(122,1708) scale(1.83, 1.83)"><g transform=" translate(0,100) scale(1,-1) " style="fill: rgb(255, 0, 0);">
<path d="M21.468,99.999c-6.65,0-12.966-6.875-13.959-13.225L0.003-0.001L88.13,5.638c6.21,0.93,11.099,6.823,11.105,13.866
	l0.762,80.495H21.468z"/>
</g></g><g transform="translate(671,671) scale(0.671,0.671)" width="671" height="671"><svg
   xmlns:dc="http://purl.org/dc/elements/1.1/"
   xmlns:cc="http://creativecommons.org/ns#"
   xmlns:rdf="http://www.w3.org/1999/02/22-rdf-syntax-ns#"
   xmlns:svg="http://www.w3.org/2000/svg"
   xmlns="http://www.w3.org/2000/svg"
   version="1.1"
   width="1000"
   height="1000"
   viewBox="0 0 1000 1000"
   id="Layer_1"
   xml:space="preserve"><metadata
     id="metadata30"><rdf:RDF><cc:Work
         rdf:about=""><dc:format>image/svg+xml</dc:format><dc:type
           rdf:resource="http://purl.org/dc/dcmitype/StillImage" /><dc:title></dc:title></cc:Work></rdf:RDF></metadata><defs
     id="defs28" /><g
     transform="scale(7.8125,7.8125)"
     id="g3"><linearGradient
       x1="-566.71143"
       y1="516.56927"
       x2="-493.28751"
       y2="621.42963"
       id="SVGID_1_"
       gradientUnits="userSpaceOnUse"
       gradientTransform="matrix(1,0,0,-1,594,633)"><stop
         id="stop6"
         style="stop-color:#ffb900;stop-opacity:1"
         offset="0" /><stop
         id="stop8"
         style="stop-color:#9100eb;stop-opacity:1"
         offset="1" /></linearGradient><circle
       cx="64"
       cy="64"
       r="64"
       id="circle10"
       style="fill:url(#SVGID_1_)" /></g><g
     transform="scale(7.8125,7.8125)"
     id="g12"><g
       id="g14"><path
         d="M 82.333,104 H 45.667 C 33.72,104 24,94.281 24,82.333 V 45.667 C 24,33.719 33.72,24 45.667,24 H 82.333 C 94.281,24 104,33.719 104,45.667 V 82.334 C 104,94.281 94.281,104 82.333,104 z M 45.667,30.667 c -8.271,0 -15,6.729 -15,15 v 36.667 c 0,8.271 6.729,15 15,15 h 36.666 c 8.271,0 15,-6.729 15,-15 V 45.667 c 0,-8.271 -6.729,-15 -15,-15 H 45.667 z"
         id="path16"
         style="fill:#ffffff" /></g><g
       id="g18"><path
         d="M 64,84 C 52.972,84 44,75.027 44,64 44,52.971 52.972,44 64,44 c 11.028,0 20,8.971 20,20 0,11.027 -8.972,20 -20,20 z m 0,-33.333 c -7.352,0 -13.333,5.981 -13.333,13.333 0,7.353 5.981,13.333 13.333,13.333 7.352,0 13.333,-5.98 13.333,-13.333 0,-7.352 -5.98,-13.333 -13.333,-13.333 z"
         id="path20"
         style="fill:#ffffff" /></g><g
       id="g22"><circle
         cx="85.25"
         cy="42.75"
         r="4.5830002"
         id="circle24"
         style="fill:#ffffff" /></g></g></svg></g></g></svg>